﻿## Interface: 50200
## Title: |cffC495DDEui|rComboPoint
## Title-zhCN: |cffC495DDEUI|r职业资源数字显示
## Title-zhTW: |cffC495DDEUI|r職業資源數字顯示
## Author: eui.cc
## X-Category: ElvUI
## RequiredDeps: ElvUI
## Version: 2.4

EuiComboPoint.xml